{
    "Response": "Success",
    "Type": 100,
    "Aggregated": true,
    "Data": [
        {
            "time": 1516706400,
            "close": 0.0003704,
            "high": 0.0003719,
            "low": 0.0003698,
            "open": 0.0003708,
            "volumefrom": 2200.2200000000003,
            "volumeto": 0.814218
        },
        {
            "time": 1516707000,
            "close": 0.0003691,
            "high": 0.0003704,
            "low": 0.0003668,
            "open": 0.0003704,
            "volumefrom": 5217.91,
            "volumeto": 1.9197799999999998
        },
        {
            "time": 1516707600,
            "close": 0.0003649,
            "high": 0.0003691,
            "low": 0.0003627,
            "open": 0.0003691,
            "volumefrom": 13999.480000000001,
            "volumeto": 5.110099
        },
        {
            "time": 1516708200,
            "close": 0.0003622,
            "high": 0.0003658,
            "low": 0.0003619,
            "open": 0.0003649,
            "volumefrom": 11460.939999999999,
            "volumeto": 4.1648
        },
        {
            "time": 1516708800,
            "close": 0.0003641,
            "high": 0.0003672,
            "low": 0.0003616,
            "open": 0.0003632,
            "volumefrom": 16639.510000000002,
            "volumeto": 6.04566
        },
        {
            "time": 1516709400,
            "close": 0.0003651,
            "high": 0.0003663,
            "low": 0.0003636,
            "open": 0.0003651,
            "volumefrom": 10329.519999999999,
            "volumeto": 3.7386429999999997
        },
        {
            "time": 1516710000,
            "close": 0.0003662,
            "high": 0.0003662,
            "low": 0.0003599,
            "open": 0.0003648,
            "volumefrom": 11531.949999999999,
            "volumeto": 4.18216
        },
        {
            "time": 1516710600,
            "close": 0.0003663,
            "high": 0.0003673,
            "low": 0.0003642,
            "open": 0.000365,
            "volumefrom": 4643.79,
            "volumeto": 1.6953570000000002
        },
        {
            "time": 1516711200,
            "close": 0.0003658,
            "high": 0.0003666,
            "low": 0.0003645,
            "open": 0.0003663,
            "volumefrom": 3870.91,
            "volumeto": 1.4194299999999997
        },
        {
            "time": 1516711800,
            "close": 0.0003691,
            "high": 0.0003755,
            "low": 0.0003658,
            "open": 0.0003658,
            "volumefrom": 3531.0499999999997,
            "volumeto": 1.3068499999999998
        },
        {
            "time": 1516712400,
            "close": 0.0003693,
            "high": 0.0003748,
            "low": 0.0003675,
            "open": 0.0003691,
            "volumefrom": 7603.67,
            "volumeto": 2.80645
        },
        {
            "time": 1516713000,
            "close": 0.0003779,
            "high": 0.0003786,
            "low": 0.0003693,
            "open": 0.0003693,
            "volumefrom": 9751.38,
            "volumeto": 3.65843
        },
        {
            "time": 1516713600,
            "close": 0.0003761,
            "high": 0.0003786,
            "low": 0.0003741,
            "open": 0.0003779,
            "volumefrom": 8662.2,
            "volumeto": 3.25862
        },
        {
            "time": 1516714200,
            "close": 0.0003795,
            "high": 0.0003827,
            "low": 0.0003759,
            "open": 0.0003761,
            "volumefrom": 11623.9,
            "volumeto": 4.4119
        },
        {
            "time": 1516714800,
            "close": 0.0003799,
            "high": 0.0003806,
            "low": 0.0003764,
            "open": 0.0003796,
            "volumefrom": 7193.65,
            "volumeto": 2.7270700000000003
        },
        {
            "time": 1516715400,
            "close": 0.0003807,
            "high": 0.0003837,
            "low": 0.0003792,
            "open": 0.0003794,
            "volumefrom": 15667.37,
            "volumeto": 5.982740000000001
        },
        {
            "time": 1516716000,
            "close": 0.0003805,
            "high": 0.0003832,
            "low": 0.0003801,
            "open": 0.0003807,
            "volumefrom": 2414.9,
            "volumeto": 0.922434
        },
        {
            "time": 1516716600,
            "close": 0.0003797,
            "high": 0.0003816,
            "low": 0.0003797,
            "open": 0.0003816,
            "volumefrom": 5521.77,
            "volumeto": 2.1003600000000002
        },
        {
            "time": 1516717200,
            "close": 0.0003798,
            "high": 0.0003802,
            "low": 0.0003792,
            "open": 0.0003792,
            "volumefrom": 1137.08,
            "volumeto": 0.43154699999999996
        },
        {
            "time": 1516717800,
            "close": 0.0003779,
            "high": 0.0003799,
            "low": 0.0003779,
            "open": 0.0003798,
            "volumefrom": 3661.25,
            "volumeto": 1.3892790000000002
        },
        {
            "time": 1516718400,
            "close": 0.0003793,
            "high": 0.0003793,
            "low": 0.0003742,
            "open": 0.0003766,
            "volumefrom": 4629.2699999999995,
            "volumeto": 1.7442559999999998
        },
        {
            "time": 1516719000,
            "close": 0.0003797,
            "high": 0.0003885,
            "low": 0.0003769,
            "open": 0.0003793,
            "volumefrom": 8241.95,
            "volumeto": 3.127536
        },
        {
            "time": 1516719600,
            "close": 0.0003806,
            "high": 0.0003847,
            "low": 0.0003796,
            "open": 0.0003796,
            "volumefrom": 19348.239999999998,
            "volumeto": 7.3795
        },
        {
            "time": 1516720200,
            "close": 0.0003832,
            "high": 0.0003869,
            "low": 0.0003802,
            "open": 0.000381,
            "volumefrom": 13327.380000000001,
            "volumeto": 5.113739999999999
        },
        {
            "time": 1516720800,
            "close": 0.0003815,
            "high": 0.0003835,
            "low": 0.0003804,
            "open": 0.0003835,
            "volumefrom": 8734.119999999999,
            "volumeto": 3.34597
        },
        {
            "time": 1516721400,
            "close": 0.0003814,
            "high": 0.0003836,
            "low": 0.0003811,
            "open": 0.0003815,
            "volumefrom": 6689.46,
            "volumeto": 2.55255
        },
        {
            "time": 1516722000,
            "close": 0.0003813,
            "high": 0.0003854,
            "low": 0.0003803,
            "open": 0.0003814,
            "volumefrom": 13630.85,
            "volumeto": 5.205909999999999
        },
        {
            "time": 1516722600,
            "close": 0.000389,
            "high": 0.000389,
            "low": 0.0003813,
            "open": 0.0003813,
            "volumefrom": 7308.82,
            "volumeto": 2.81231
        },
        {
            "time": 1516723200,
            "close": 0.0003869,
            "high": 0.0003886,
            "low": 0.000385,
            "open": 0.0003857,
            "volumefrom": 8728.329999999998,
            "volumeto": 3.3784599999999996
        },
        {
            "time": 1516723800,
            "close": 0.0003847,
            "high": 0.0003885,
            "low": 0.0003817,
            "open": 0.0003885,
            "volumefrom": 5679.840000000001,
            "volumeto": 2.18658
        },
        {
            "time": 1516724400,
            "close": 0.0003861,
            "high": 0.0003871,
            "low": 0.0003844,
            "open": 0.0003848,
            "volumefrom": 5493.159999999999,
            "volumeto": 2.1176
        },
        {
            "time": 1516725000,
            "close": 0.0003893,
            "high": 0.0003936,
            "low": 0.0003845,
            "open": 0.000386,
            "volumefrom": 14349.09,
            "volumeto": 5.58367
        },
        {
            "time": 1516725600,
            "close": 0.0003918,
            "high": 0.0003939,
            "low": 0.000388,
            "open": 0.0003921,
            "volumefrom": 15998.260000000002,
            "volumeto": 6.2643
        },
        {
            "time": 1516726200,
            "close": 0.0003936,
            "high": 0.0003938,
            "low": 0.0003922,
            "open": 0.0003937,
            "volumefrom": 6037.3200000000015,
            "volumeto": 2.3743
        },
        {
            "time": 1516726800,
            "close": 0.0003936,
            "high": 0.0003943,
            "low": 0.0003916,
            "open": 0.0003936,
            "volumefrom": 9354.14,
            "volumeto": 3.6706499999999997
        },
        {
            "time": 1516727400,
            "close": 0.0003914,
            "high": 0.0003948,
            "low": 0.0003914,
            "open": 0.0003922,
            "volumefrom": 11071.410000000002,
            "volumeto": 4.373810000000001
        },
        {
            "time": 1516728000,
            "close": 0.0003862,
            "high": 0.0003925,
            "low": 0.0003828,
            "open": 0.0003914,
            "volumefrom": 21423.890000000003,
            "volumeto": 8.269419
        },
        {
            "time": 1516728600,
            "close": 0.0003852,
            "high": 0.000387,
            "low": 0.000385,
            "open": 0.0003858,
            "volumefrom": 5738.849999999999,
            "volumeto": 2.2189200000000002
        },
        {
            "time": 1516729200,
            "close": 0.0003895,
            "high": 0.000391,
            "low": 0.0003852,
            "open": 0.0003852,
            "volumefrom": 5459.039999999999,
            "volumeto": 2.12044
        },
        {
            "time": 1516729800,
            "close": 0.0003901,
            "high": 0.0003907,
            "low": 0.000387,
            "open": 0.0003895,
            "volumefrom": 6659.7,
            "volumeto": 2.59783
        },
        {
            "time": 1516730400,
            "close": 0.0003855,
            "high": 0.0003908,
            "low": 0.0003835,
            "open": 0.0003902,
            "volumefrom": 9980.670000000002,
            "volumeto": 3.85938
        },
        {
            "time": 1516731000,
            "close": 0.0003855,
            "high": 0.0003867,
            "low": 0.0003845,
            "open": 0.0003855,
            "volumefrom": 5653.360000000001,
            "volumeto": 2.17923
        },
        {
            "time": 1516731600,
            "close": 0.0003842,
            "high": 0.0003887,
            "low": 0.0003841,
            "open": 0.0003855,
            "volumefrom": 8983.45,
            "volumeto": 3.4583999999999997
        },
        {
            "time": 1516732200,
            "close": 0.0003845,
            "high": 0.0003857,
            "low": 0.0003838,
            "open": 0.0003838,
            "volumefrom": 2244.45,
            "volumeto": 0.86279
        },
        {
            "time": 1516732800,
            "close": 0.0003845,
            "high": 0.0003849,
            "low": 0.0003842,
            "open": 0.0003844,
            "volumefrom": 6429.48,
            "volumeto": 2.473112
        },
        {
            "time": 1516733400,
            "close": 0.000385,
            "high": 0.0003878,
            "low": 0.0003841,
            "open": 0.0003842,
            "volumefrom": 5081.349999999999,
            "volumeto": 1.9629199999999998
        },
        {
            "time": 1516734000,
            "close": 0.0003874,
            "high": 0.0003896,
            "low": 0.0003846,
            "open": 0.000385,
            "volumefrom": 8880.589999999998,
            "volumeto": 3.44002
        },
        {
            "time": 1516734600,
            "close": 0.0003884,
            "high": 0.0003897,
            "low": 0.0003874,
            "open": 0.0003874,
            "volumefrom": 6635.3312000000005,
            "volumeto": 2.5870523
        },
        {
            "time": 1516735200,
            "close": 0.0003875,
            "high": 0.0003886,
            "low": 0.0003863,
            "open": 0.0003883,
            "volumefrom": 5848.36,
            "volumeto": 2.26845
        },
        {
            "time": 1516735800,
            "close": 0.000388,
            "high": 0.000388,
            "low": 0.0003864,
            "open": 0.0003875,
            "volumefrom": 2566.9300000000003,
            "volumeto": 0.994557
        },
        {
            "time": 1516736400,
            "close": 0.0003866,
            "high": 0.0003887,
            "low": 0.0003864,
            "open": 0.000388,
            "volumefrom": 2093.23,
            "volumeto": 0.8121174999999999
        },
        {
            "time": 1516737000,
            "close": 0.0003846,
            "high": 0.0003869,
            "low": 0.0003843,
            "open": 0.0003866,
            "volumefrom": 6481.68,
            "volumeto": 2.4973799999999997
        },
        {
            "time": 1516737600,
            "close": 0.0003841,
            "high": 0.0003849,
            "low": 0.0003837,
            "open": 0.0003844,
            "volumefrom": 8266.199999999999,
            "volumeto": 3.17229
        },
        {
            "time": 1516738200,
            "close": 0.0003842,
            "high": 0.0003847,
            "low": 0.0003837,
            "open": 0.0003841,
            "volumefrom": 5133.2300000000005,
            "volumeto": 1.9719270000000002
        },
        {
            "time": 1516738800,
            "close": 0.0003844,
            "high": 0.0003856,
            "low": 0.0003831,
            "open": 0.0003842,
            "volumefrom": 5293.3,
            "volumeto": 2.02968
        },
        {
            "time": 1516739400,
            "close": 0.0003863,
            "high": 0.0003871,
            "low": 0.0003838,
            "open": 0.0003851,
            "volumefrom": 2832.89,
            "volumeto": 1.093481
        },
        {
            "time": 1516740000,
            "close": 0.0003877,
            "high": 0.0003877,
            "low": 0.0003852,
            "open": 0.0003863,
            "volumefrom": 3798.56,
            "volumeto": 1.4730325
        },
        {
            "time": 1516740600,
            "close": 0.0003867,
            "high": 0.0003877,
            "low": 0.0003852,
            "open": 0.0003877,
            "volumefrom": 2321.2999999999997,
            "volumeto": 0.8971020000000001
        },
        {
            "time": 1516741200,
            "close": 0.0003865,
            "high": 0.000387,
            "low": 0.0003858,
            "open": 0.0003858,
            "volumefrom": 4576.03,
            "volumeto": 1.766359
        },
        {
            "time": 1516741800,
            "close": 0.0003885,
            "high": 0.0003886,
            "low": 0.0003853,
            "open": 0.0003856,
            "volumefrom": 8115.3,
            "volumeto": 3.1433299999999997
        },
        {
            "time": 1516742400,
            "close": 0.0003916,
            "high": 0.0003916,
            "low": 0.000389,
            "open": 0.000389,
            "volumefrom": 7143.99,
            "volumeto": 2.7893799999999995
        },
        {
            "time": 1516743000,
            "close": 0.0003941,
            "high": 0.0003941,
            "low": 0.0003901,
            "open": 0.0003917,
            "volumefrom": 7687.83,
            "volumeto": 3.01947
        },
        {
            "time": 1516743600,
            "close": 0.0003935,
            "high": 0.000395,
            "low": 0.0003918,
            "open": 0.0003941,
            "volumefrom": 12946.52,
            "volumeto": 5.09289
        },
        {
            "time": 1516744200,
            "close": 0.0003954,
            "high": 0.0003955,
            "low": 0.0003931,
            "open": 0.0003935,
            "volumefrom": 8149.48,
            "volumeto": 3.21583
        },
        {
            "time": 1516744800,
            "close": 0.0003991,
            "high": 0.0003991,
            "low": 0.0003954,
            "open": 0.0003954,
            "volumefrom": 19156.18,
            "volumeto": 7.608099999999999
        },
        {
            "time": 1516745400,
            "close": 0.0003992,
            "high": 0.0003994,
            "low": 0.0003962,
            "open": 0.0003989,
            "volumefrom": 16205.15,
            "volumeto": 6.4395
        },
        {
            "time": 1516746000,
            "close": 0.0003991,
            "high": 0.0004008,
            "low": 0.0003972,
            "open": 0.0003994,
            "volumefrom": 15036.810000000001,
            "volumeto": 6.0108
        },
        {
            "time": 1516746600,
            "close": 0.0004009,
            "high": 0.0004018,
            "low": 0.0003978,
            "open": 0.0003991,
            "volumefrom": 12615.46,
            "volumeto": 5.03932
        },
        {
            "time": 1516747200,
            "close": 0.0004048,
            "high": 0.0004066,
            "low": 0.0004008,
            "open": 0.0004018,
            "volumefrom": 21476.379999999997,
            "volumeto": 8.682699999999999
        },
        {
            "time": 1516747800,
            "close": 0.0004063,
            "high": 0.0004095,
            "low": 0.0004044,
            "open": 0.0004048,
            "volumefrom": 28480.74,
            "volumeto": 11.62823
        },
        {
            "time": 1516748400,
            "close": 0.0004065,
            "high": 0.0004083,
            "low": 0.0004048,
            "open": 0.0004063,
            "volumefrom": 14986.09,
            "volumeto": 6.10162
        },
        {
            "time": 1516749000,
            "close": 0.0004073,
            "high": 0.0004091,
            "low": 0.0004063,
            "open": 0.0004065,
            "volumefrom": 8654.76,
            "volumeto": 3.5228399999999995
        },
        {
            "time": 1516749600,
            "close": 0.0004095,
            "high": 0.0004095,
            "low": 0.0004064,
            "open": 0.0004073,
            "volumefrom": 9126.779999999999,
            "volumeto": 3.72259
        },
        {
            "time": 1516750200,
            "close": 0.0004081,
            "high": 0.0004095,
            "low": 0.0004069,
            "open": 0.0004095,
            "volumefrom": 22070.640000000003,
            "volumeto": 9.034460000000001
        },
        {
            "time": 1516750800,
            "close": 0.0004035,
            "high": 0.0004082,
            "low": 0.0004016,
            "open": 0.0004081,
            "volumefrom": 21484.690000000002,
            "volumeto": 8.69065
        },
        {
            "time": 1516751400,
            "close": 0.0004019,
            "high": 0.0004034,
            "low": 0.0003957,
            "open": 0.0004034,
            "volumefrom": 13389.93,
            "volumeto": 5.345625000000001
        },
        {
            "time": 1516752000,
            "close": 0.000395,
            "high": 0.0004019,
            "low": 0.000394,
            "open": 0.0004019,
            "volumefrom": 21564.640000000003,
            "volumeto": 8.506300000000001
        },
        {
            "time": 1516752600,
            "close": 0.0003944,
            "high": 0.0003981,
            "low": 0.0003941,
            "open": 0.0003966,
            "volumefrom": 5109.360000000001,
            "volumeto": 2.021659
        },
        {
            "time": 1516753200,
            "close": 0.0003937,
            "high": 0.0003949,
            "low": 0.0003924,
            "open": 0.0003944,
            "volumefrom": 10711.86,
            "volumeto": 4.2067
        },
        {
            "time": 1516753800,
            "close": 0.0003948,
            "high": 0.0003977,
            "low": 0.0003908,
            "open": 0.0003937,
            "volumefrom": 13521.57,
            "volumeto": 5.34223
        },
        {
            "time": 1516754400,
            "close": 0.0003946,
            "high": 0.0004047,
            "low": 0.0003946,
            "open": 0.0003969,
            "volumefrom": 12528.41,
            "volumeto": 5.007185
        },
        {
            "time": 1516755000,
            "close": 0.0003956,
            "high": 0.0003959,
            "low": 0.0003923,
            "open": 0.0003946,
            "volumefrom": 10899.16,
            "volumeto": 4.308222
        },
        {
            "time": 1516755600,
            "close": 0.0003931,
            "high": 0.0003955,
            "low": 0.0003909,
            "open": 0.000395,
            "volumefrom": 7822.2699999999995,
            "volumeto": 3.07822
        },
        {
            "time": 1516756200,
            "close": 0.0003943,
            "high": 0.0003967,
            "low": 0.0003927,
            "open": 0.0003931,
            "volumefrom": 1976.09,
            "volumeto": 0.7804979999999999
        },
        {
            "time": 1516756800,
            "close": 0.0003949,
            "high": 0.0003965,
            "low": 0.0003912,
            "open": 0.0003947,
            "volumefrom": 2190.57,
            "volumeto": 0.8649
        },
        {
            "time": 1516757400,
            "close": 0.0003952,
            "high": 0.000398,
            "low": 0.0003933,
            "open": 0.0003949,
            "volumefrom": 5120.71,
            "volumeto": 2.023918
        },
        {
            "time": 1516758000,
            "close": 0.0003963,
            "high": 0.0003965,
            "low": 0.0003941,
            "open": 0.0003952,
            "volumefrom": 2088.09,
            "volumeto": 0.8246411
        },
        {
            "time": 1516758600,
            "close": 0.0003917,
            "high": 0.0003963,
            "low": 0.0003912,
            "open": 0.0003963,
            "volumefrom": 11342.380000000001,
            "volumeto": 4.46385
        },
        {
            "time": 1516759200,
            "close": 0.0003889,
            "high": 0.0003917,
            "low": 0.0003889,
            "open": 0.0003917,
            "volumefrom": 21079.68,
            "volumeto": 8.22153
        },
        {
            "time": 1516759800,
            "close": 0.0003868,
            "high": 0.0003902,
            "low": 0.0003846,
            "open": 0.0003902,
            "volumefrom": 18310.93,
            "volumeto": 7.063899999999999
        },
        {
            "time": 1516760400,
            "close": 0.0003909,
            "high": 0.0003922,
            "low": 0.0003863,
            "open": 0.0003868,
            "volumefrom": 6347.56,
            "volumeto": 2.46577
        },
        {
            "time": 1516761000,
            "close": 0.0003873,
            "high": 0.0003941,
            "low": 0.0003873,
            "open": 0.0003919,
            "volumefrom": 6863.13,
            "volumeto": 2.682958
        },
        {
            "time": 1516761600,
            "close": 0.0003902,
            "high": 0.0003925,
            "low": 0.0003883,
            "open": 0.0003894,
            "volumefrom": 4721.38,
            "volumeto": 1.843722
        },
        {
            "time": 1516762200,
            "close": 0.0003892,
            "high": 0.0003925,
            "low": 0.000388,
            "open": 0.00039,
            "volumefrom": 7918.08,
            "volumeto": 3.08321
        },
        {
            "time": 1516762800,
            "close": 0.0003887,
            "high": 0.0003898,
            "low": 0.0003863,
            "open": 0.0003874,
            "volumefrom": 2375.36,
            "volumeto": 0.925261
        },
        {
            "time": 1516763400,
            "close": 0.0003886,
            "high": 0.0003905,
            "low": 0.0003883,
            "open": 0.0003905,
            "volumefrom": 4055.8900000000003,
            "volumeto": 1.578376
        },
        {
            "time": 1516764000,
            "close": 0.0003884,
            "high": 0.0003924,
            "low": 0.0003877,
            "open": 0.0003886,
            "volumefrom": 5271.469999999999,
            "volumeto": 2.05002
        },
        {
            "time": 1516764600,
            "close": 0.0003932,
            "high": 0.0003932,
            "low": 0.0003884,
            "open": 0.0003896,
            "volumefrom": 13144.510000000002,
            "volumeto": 5.151102
        },
        {
            "time": 1516765200,
            "close": 0.0003929,
            "high": 0.0003978,
            "low": 0.0003879,
            "open": 0.0003932,
            "volumefrom": 13112.010000000002,
            "volumeto": 5.152784
        },
        {
            "time": 1516765800,
            "close": 0.0003888,
            "high": 0.000393,
            "low": 0.0003886,
            "open": 0.0003929,
            "volumefrom": 9432.100000000002,
            "volumeto": 3.6810599999999996
        },
        {
            "time": 1516766400,
            "close": 0.000389,
            "high": 0.0003911,
            "low": 0.000389,
            "open": 0.0003903,
            "volumefrom": 8092.02,
            "volumeto": 3.1505280000000004
        },
        {
            "time": 1516767000,
            "close": 0.0003912,
            "high": 0.0003913,
            "low": 0.000389,
            "open": 0.0003903,
            "volumefrom": 1257.4399999999998,
            "volumeto": 0.491648
        },
        {
            "time": 1516767600,
            "close": 0.0003909,
            "high": 0.0003918,
            "low": 0.0003904,
            "open": 0.0003912,
            "volumefrom": 2888.8832300000004,
            "volumeto": 1.13476955
        },
        {
            "time": 1516768200,
            "close": 0.0003907,
            "high": 0.0003919,
            "low": 0.0003892,
            "open": 0.000391,
            "volumefrom": 3472.4100000000003,
            "volumeto": 1.35278
        },
        {
            "time": 1516768800,
            "close": 0.0003919,
            "high": 0.0003919,
            "low": 0.0003894,
            "open": 0.0003907,
            "volumefrom": 3173.4399999999996,
            "volumeto": 1.245301
        },
        {
            "time": 1516769400,
            "close": 0.0003909,
            "high": 0.0003963,
            "low": 0.0003909,
            "open": 0.0003919,
            "volumefrom": 4443.639999999999,
            "volumeto": 1.7454450000000001
        },
        {
            "time": 1516770000,
            "close": 0.0003958,
            "high": 0.0003959,
            "low": 0.0003919,
            "open": 0.0003919,
            "volumefrom": 11150.98,
            "volumeto": 4.388927
        },
        {
            "time": 1516770600,
            "close": 0.0003943,
            "high": 0.0003958,
            "low": 0.0003924,
            "open": 0.0003958,
            "volumefrom": 3418.75,
            "volumeto": 1.3439299999999998
        },
        {
            "time": 1516771200,
            "close": 0.0003911,
            "high": 0.0003951,
            "low": 0.0003908,
            "open": 0.0003929,
            "volumefrom": 4386.35,
            "volumeto": 1.7203899999999999
        },
        {
            "time": 1516771800,
            "close": 0.0003906,
            "high": 0.0003929,
            "low": 0.00039,
            "open": 0.0003911,
            "volumefrom": 6739.18,
            "volumeto": 2.62524
        },
        {
            "time": 1516772400,
            "close": 0.0003905,
            "high": 0.0003919,
            "low": 0.0003894,
            "open": 0.0003895,
            "volumefrom": 7653.88,
            "volumeto": 2.9801599999999997
        },
        {
            "time": 1516773000,
            "close": 0.0003893,
            "high": 0.0003917,
            "low": 0.0003893,
            "open": 0.0003905,
            "volumefrom": 2238.12,
            "volumeto": 0.872116
        },
        {
            "time": 1516773600,
            "close": 0.0003893,
            "high": 0.0003906,
            "low": 0.0003892,
            "open": 0.0003893,
            "volumefrom": 2895.1600000000003,
            "volumeto": 1.12691
        },
        {
            "time": 1516774200,
            "close": 0.0003905,
            "high": 0.0003905,
            "low": 0.0003893,
            "open": 0.0003893,
            "volumefrom": 953.63,
            "volumeto": 0.37192200000000003
        },
        {
            "time": 1516774800,
            "close": 0.0003886,
            "high": 0.0003905,
            "low": 0.0003883,
            "open": 0.0003905,
            "volumefrom": 3506.29,
            "volumeto": 1.3657151
        },
        {
            "time": 1516775400,
            "close": 0.0003889,
            "high": 0.0003905,
            "low": 0.0003883,
            "open": 0.0003886,
            "volumefrom": 11113.13,
            "volumeto": 4.31691
        },
        {
            "time": 1516776000,
            "close": 0.0003902,
            "high": 0.0003917,
            "low": 0.0003889,
            "open": 0.0003904,
            "volumefrom": 9771.910000000002,
            "volumeto": 3.80645
        },
        {
            "time": 1516776600,
            "close": 0.0003913,
            "high": 0.0003913,
            "low": 0.0003892,
            "open": 0.0003902,
            "volumefrom": 3356.3199999999997,
            "volumeto": 1.3118049999999999
        },
        {
            "time": 1516777200,
            "close": 0.0003913,
            "high": 0.0003913,
            "low": 0.00039,
            "open": 0.0003913,
            "volumefrom": 9682.14,
            "volumeto": 3.7860199999999997
        },
        {
            "time": 1516777800,
            "close": 0.0003917,
            "high": 0.0003917,
            "low": 0.0003901,
            "open": 0.0003913,
            "volumefrom": 2516.0299999999997,
            "volumeto": 0.982389
        },
        {
            "time": 1516778400,
            "close": 0.0003943,
            "high": 0.0003952,
            "low": 0.0003904,
            "open": 0.0003917,
            "volumefrom": 4729.03,
            "volumeto": 1.8537
        },
        {
            "time": 1516779000,
            "close": 0.0003945,
            "high": 0.0003951,
            "low": 0.0003917,
            "open": 0.0003943,
            "volumefrom": 11331.84,
            "volumeto": 4.472276000000001
        },
        {
            "time": 1516779600,
            "close": 0.0003956,
            "high": 0.0003994,
            "low": 0.0003924,
            "open": 0.0003945,
            "volumefrom": 6316.13,
            "volumeto": 2.5114229999999997
        },
        {
            "time": 1516780200,
            "close": 0.0003952,
            "high": 0.0003988,
            "low": 0.0003947,
            "open": 0.0003988,
            "volumefrom": 6584.790000000001,
            "volumeto": 2.6061499999999995
        },
        {
            "time": 1516780800,
            "close": 0.000397,
            "high": 0.0004017,
            "low": 0.0003946,
            "open": 0.0003947,
            "volumefrom": 5057.66,
            "volumeto": 2.0109800000000004
        },
        {
            "time": 1516781400,
            "close": 0.0004027,
            "high": 0.0004027,
            "low": 0.0003958,
            "open": 0.000397,
            "volumefrom": 10562.22,
            "volumeto": 4.218503999999999
        },
        {
            "time": 1516782000,
            "close": 0.0003963,
            "high": 0.0004037,
            "low": 0.0003953,
            "open": 0.0004027,
            "volumefrom": 6363.21,
            "volumeto": 2.534008
        },
        {
            "time": 1516782600,
            "close": 0.0003973,
            "high": 0.0003998,
            "low": 0.0003959,
            "open": 0.0003963,
            "volumefrom": 2437.9999999999995,
            "volumeto": 0.9669599999999999
        },
        {
            "time": 1516783200,
            "close": 0.0003974,
            "high": 0.0004004,
            "low": 0.0003971,
            "open": 0.0003973,
            "volumefrom": 11808.869999999999,
            "volumeto": 4.685848
        },
        {
            "time": 1516783800,
            "close": 0.0004001,
            "high": 0.0004003,
            "low": 0.0003978,
            "open": 0.000398,
            "volumefrom": 7206.115899999999,
            "volumeto": 2.8771299
        },
        {
            "time": 1516784400,
            "close": 0.0003977,
            "high": 0.0004001,
            "low": 0.0003977,
            "open": 0.0004001,
            "volumefrom": 7508.76,
            "volumeto": 2.9940200000000003
        },
        {
            "time": 1516785000,
            "close": 0.0003956,
            "high": 0.0003978,
            "low": 0.0003948,
            "open": 0.0003978,
            "volumefrom": 8482.59,
            "volumeto": 3.3536399999999995
        },
        {
            "time": 1516785600,
            "close": 0.0003988,
            "high": 0.0003995,
            "low": 0.0003945,
            "open": 0.0003956,
            "volumefrom": 4393.03,
            "volumeto": 1.7407940000000002
        },
        {
            "time": 1516786200,
            "close": 0.0003932,
            "high": 0.0003968,
            "low": 0.0003914,
            "open": 0.0003967,
            "volumefrom": 9755.310000000001,
            "volumeto": 3.828932
        },
        {
            "time": 1516786800,
            "close": 0.0003954,
            "high": 0.0003964,
            "low": 0.0003916,
            "open": 0.0003934,
            "volumefrom": 4481.82,
            "volumeto": 1.7729080000000002
        },
        {
            "time": 1516787400,
            "close": 0.000396,
            "high": 0.000396,
            "low": 0.0003923,
            "open": 0.0003954,
            "volumefrom": 9877.4,
            "volumeto": 3.9074529999999994
        },
        {
            "time": 1516788000,
            "close": 0.0003957,
            "high": 0.0003999,
            "low": 0.0003938,
            "open": 0.0003957,
            "volumefrom": 10847.98,
            "volumeto": 4.2727699999999995
        },
        {
            "time": 1516788600,
            "close": 0.0003963,
            "high": 0.0003966,
            "low": 0.0003927,
            "open": 0.0003957,
            "volumefrom": 8478.65,
            "volumeto": 3.3391900000000003
        },
        {
            "time": 1516789200,
            "close": 0.0003952,
            "high": 0.0003965,
            "low": 0.0003948,
            "open": 0.0003963,
            "volumefrom": 3255.6,
            "volumeto": 1.2887686
        },
        {
            "time": 1516789800,
            "close": 0.0003946,
            "high": 0.0003965,
            "low": 0.0003932,
            "open": 0.000395,
            "volumefrom": 3996.54,
            "volumeto": 1.5749199999999999
        },
        {
            "time": 1516790400,
            "close": 0.0003965,
            "high": 0.0003986,
            "low": 0.0003936,
            "open": 0.0003946,
            "volumefrom": 5044.26,
            "volumeto": 2.001587
        },
        {
            "time": 1516791000,
            "close": 0.0003972,
            "high": 0.0003993,
            "low": 0.0003964,
            "open": 0.0003965,
            "volumefrom": 3821.2973,
            "volumeto": 1.5206656999999997
        },
        {
            "time": 1516791600,
            "close": 0.0003998,
            "high": 0.0003998,
            "low": 0.0003959,
            "open": 0.0003987,
            "volumefrom": 5797.22,
            "volumeto": 2.3120849999999997
        },
        {
            "time": 1516792200,
            "close": 0.0003984,
            "high": 0.0003999,
            "low": 0.0003975,
            "open": 0.0003984,
            "volumefrom": 6618.03,
            "volumeto": 2.6359899999999996
        },
        {
            "time": 1516792800,
            "close": 0.0003987,
            "high": 0.0003987,
            "low": 0.0003974,
            "open": 0.0003984,
            "volumefrom": 3684.4699999999993,
            "volumeto": 1.4714900000000002
        },
        {
            "time": 1516793400,
            "close": 0.0003966,
            "high": 0.0003991,
            "low": 0.0003966,
            "open": 0.0003984,
            "volumefrom": 8661.929999999998,
            "volumeto": 3.44954
        },
        {
            "time": 1516794000,
            "close": 0.0003965,
            "high": 0.0003982,
            "low": 0.0003962,
            "open": 0.0003966,
            "volumefrom": 4665.95,
            "volumeto": 1.848514
        },
        {
            "time": 1516794600,
            "close": 0.0003959,
            "high": 0.0003966,
            "low": 0.000394,
            "open": 0.0003965,
            "volumefrom": 10193.460000000001,
            "volumeto": 4.033309999999999
        },
        {
            "time": 1516795200,
            "close": 0.000394,
            "high": 0.000396,
            "low": 0.0003918,
            "open": 0.0003959,
            "volumefrom": 9128.569999999998,
            "volumeto": 3.574139
        },
        {
            "time": 1516795800,
            "close": 0.0003913,
            "high": 0.000397,
            "low": 0.0003899,
            "open": 0.000394,
            "volumefrom": 20498.94,
            "volumeto": 7.9864
        },
        {
            "time": 1516796400,
            "close": 0.0003935,
            "high": 0.0003945,
            "low": 0.0003898,
            "open": 0.0003913,
            "volumefrom": 2576.19,
            "volumeto": 1.010336
        },
        {
            "time": 1516797000,
            "close": 0.0003937,
            "high": 0.0003956,
            "low": 0.0003918,
            "open": 0.0003956,
            "volumefrom": 10205.629999999997,
            "volumeto": 4.0185
        },
        {
            "time": 1516797600,
            "close": 0.0003928,
            "high": 0.0003937,
            "low": 0.0003907,
            "open": 0.0003937,
            "volumefrom": 8073.179999999999,
            "volumeto": 3.1572199999999997
        },
        {
            "time": 1516798200,
            "close": 0.000392,
            "high": 0.0003927,
            "low": 0.0003894,
            "open": 0.0003914,
            "volumefrom": 8108.349999999999,
            "volumeto": 3.16485
        },
        {
            "time": 1516798800,
            "close": 0.0003949,
            "high": 0.0003956,
            "low": 0.0003912,
            "open": 0.0003917,
            "volumefrom": 7818.3099999999995,
            "volumeto": 3.07617
        },
        {
            "time": 1516799400,
            "close": 0.0003922,
            "high": 0.0003949,
            "low": 0.00039,
            "open": 0.0003938,
            "volumefrom": 4050.02,
            "volumeto": 1.59306
        },
        {
            "time": 1516800000,
            "close": 0.0003958,
            "high": 0.0003971,
            "low": 0.0003922,
            "open": 0.0003922,
            "volumefrom": 9689.949999999999,
            "volumeto": 3.8385999999999996
        },
        {
            "time": 1516800600,
            "close": 0.0003947,
            "high": 0.000397,
            "low": 0.0003917,
            "open": 0.0003958,
            "volumefrom": 6071.969999999999,
            "volumeto": 2.38461
        },
        {
            "time": 1516801200,
            "close": 0.0003934,
            "high": 0.0003955,
            "low": 0.0003931,
            "open": 0.0003947,
            "volumefrom": 5032.07,
            "volumeto": 1.9789599999999998
        },
        {
            "time": 1516801800,
            "close": 0.000396,
            "high": 0.000396,
            "low": 0.0003916,
            "open": 0.0003934,
            "volumefrom": 7577.280000000001,
            "volumeto": 2.9896700000000003
        },
        {
            "time": 1516802400,
            "close": 0.0003984,
            "high": 0.0003984,
            "low": 0.000395,
            "open": 0.0003959,
            "volumefrom": 7442.14,
            "volumeto": 2.9515900000000004
        },
        {
            "time": 1516803000,
            "close": 0.0003979,
            "high": 0.0004025,
            "low": 0.0003978,
            "open": 0.0003984,
            "volumefrom": 12132.76,
            "volumeto": 4.85337
        },
        {
            "time": 1516803600,
            "close": 0.0003956,
            "high": 0.0003992,
            "low": 0.0003926,
            "open": 0.0003979,
            "volumefrom": 8233.68,
            "volumeto": 3.25102
        },
        {
            "time": 1516804200,
            "close": 0.0003974,
            "high": 0.0003983,
            "low": 0.000395,
            "open": 0.0003957,
            "volumefrom": 9733.380000000001,
            "volumeto": 3.84155
        },
        {
            "time": 1516804800,
            "close": 0.0003955,
            "high": 0.0003989,
            "low": 0.0003939,
            "open": 0.0003989,
            "volumefrom": 11655.51,
            "volumeto": 4.6029800000000005
        },
        {
            "time": 1516805400,
            "close": 0.000398,
            "high": 0.0003991,
            "low": 0.0003945,
            "open": 0.0003955,
            "volumefrom": 9804.57,
            "volumeto": 3.8927156999999997
        },
        {
            "time": 1516806000,
            "close": 0.0003967,
            "high": 0.0003982,
            "low": 0.0003959,
            "open": 0.0003977,
            "volumefrom": 6102.849999999999,
            "volumeto": 2.42184
        },
        {
            "time": 1516806600,
            "close": 0.0003951,
            "high": 0.0003969,
            "low": 0.0003942,
            "open": 0.0003959,
            "volumefrom": 8890.98,
            "volumeto": 3.5160539999999996
        },
        {
            "time": 1516807200,
            "close": 0.0003963,
            "high": 0.0003984,
            "low": 0.000394,
            "open": 0.000394,
            "volumefrom": 7679.550000000001,
            "volumeto": 3.048964
        },
        {
            "time": 1516807800,
            "close": 0.0003982,
            "high": 0.0004034,
            "low": 0.0003951,
            "open": 0.0003963,
            "volumefrom": 5471.39,
            "volumeto": 2.189448
        },
        {
            "time": 1516808400,
            "close": 0.0003992,
            "high": 0.0004018,
            "low": 0.000397,
            "open": 0.0003982,
            "volumefrom": 4514.46,
            "volumeto": 1.8064099999999998
        },
        {
            "time": 1516809000,
            "close": 0.0003952,
            "high": 0.0003984,
            "low": 0.0003948,
            "open": 0.0003971,
            "volumefrom": 8519.330000000002,
            "volumeto": 3.3738599999999996
        },
        {
            "time": 1516809600,
            "close": 0.0003952,
            "high": 0.0003965,
            "low": 0.0003949,
            "open": 0.0003952,
            "volumefrom": 7183.75,
            "volumeto": 2.840991
        },
        {
            "time": 1516810200,
            "close": 0.0003977,
            "high": 0.0003986,
            "low": 0.000395,
            "open": 0.000395,
            "volumefrom": 3709.0000000000005,
            "volumeto": 1.4735776000000003
        },
        {
            "time": 1516810800,
            "close": 0.0003939,
            "high": 0.0003977,
            "low": 0.0003934,
            "open": 0.0003977,
            "volumefrom": 5847.219999999999,
            "volumeto": 2.30422
        },
        {
            "time": 1516811400,
            "close": 0.0003922,
            "high": 0.0003946,
            "low": 0.0003896,
            "open": 0.0003939,
            "volumefrom": 11842.8,
            "volumeto": 4.616715999999999
        },
        {
            "time": 1516812000,
            "close": 0.0003942,
            "high": 0.0003959,
            "low": 0.0003902,
            "open": 0.0003922,
            "volumefrom": 2425.2000000000003,
            "volumeto": 0.9468639999999999
        },
        {
            "time": 1516812600,
            "close": 0.0003938,
            "high": 0.0003944,
            "low": 0.0003928,
            "open": 0.0003944,
            "volumefrom": 1740.6,
            "volumeto": 0.6843200000000002
        },
        {
            "time": 1516813200,
            "close": 0.0003936,
            "high": 0.0003941,
            "low": 0.0003899,
            "open": 0.0003938,
            "volumefrom": 4382.08,
            "volumeto": 1.7169299999999998
        },
        {
            "time": 1516813800,
            "close": 0.0003927,
            "high": 0.0003941,
            "low": 0.0003927,
            "open": 0.0003936,
            "volumefrom": 1610.08,
            "volumeto": 0.633279
        },
        {
            "time": 1516814400,
            "close": 0.0003922,
            "high": 0.0003927,
            "low": 0.0003905,
            "open": 0.0003927,
            "volumefrom": 3331.18,
            "volumeto": 1.3033800000000002
        },
        {
            "time": 1516815000,
            "close": 0.0003932,
            "high": 0.0003932,
            "low": 0.0003922,
            "open": 0.0003922,
            "volumefrom": 2434.87,
            "volumeto": 0.9582229999999998
        },
        {
            "time": 1516815600,
            "close": 0.000391,
            "high": 0.0003932,
            "low": 0.000391,
            "open": 0.0003932,
            "volumefrom": 3580.25,
            "volumeto": 1.40571
        },
        {
            "time": 1516816200,
            "close": 0.0003898,
            "high": 0.000391,
            "low": 0.0003898,
            "open": 0.000391,
            "volumefrom": 6572.400000000001,
            "volumeto": 2.56791
        },
        {
            "time": 1516816800,
            "close": 0.0003922,
            "high": 0.0003929,
            "low": 0.0003898,
            "open": 0.0003898,
            "volumefrom": 2513.29,
            "volumeto": 0.98665
        },
        {
            "time": 1516817400,
            "close": 0.0003928,
            "high": 0.0003933,
            "low": 0.0003917,
            "open": 0.0003933,
            "volumefrom": 1527.13,
            "volumeto": 0.5976880000000001
        },
        {
            "time": 1516818000,
            "close": 0.000393,
            "high": 0.0003936,
            "low": 0.0003903,
            "open": 0.0003918,
            "volumefrom": 3647.1800000000003,
            "volumeto": 1.436612
        },
        {
            "time": 1516818600,
            "close": 0.0003934,
            "high": 0.0003934,
            "low": 0.0003919,
            "open": 0.000393,
            "volumefrom": 3803.39,
            "volumeto": 1.495578
        },
        {
            "time": 1516819200,
            "close": 0.0003919,
            "high": 0.0003934,
            "low": 0.0003899,
            "open": 0.0003934,
            "volumefrom": 5778.290000000001,
            "volumeto": 2.2605
        },
        {
            "time": 1516819800,
            "close": 0.0003907,
            "high": 0.000392,
            "low": 0.0003888,
            "open": 0.0003919,
            "volumefrom": 2934.3,
            "volumeto": 1.14428
        },
        {
            "time": 1516820400,
            "close": 0.00039,
            "high": 0.0003907,
            "low": 0.0003888,
            "open": 0.0003907,
            "volumefrom": 2563.28,
            "volumeto": 0.9980249999999999
        },
        {
            "time": 1516821000,
            "close": 0.0003906,
            "high": 0.0003907,
            "low": 0.0003895,
            "open": 0.00039,
            "volumefrom": 1228.25,
            "volumeto": 0.479346
        },
        {
            "time": 1516821600,
            "close": 0.0003899,
            "high": 0.0003918,
            "low": 0.0003899,
            "open": 0.0003906,
            "volumefrom": 3945.74,
            "volumeto": 1.536253
        },
        {
            "time": 1516822200,
            "close": 0.0003892,
            "high": 0.0003904,
            "low": 0.0003892,
            "open": 0.0003898,
            "volumefrom": 3102.73,
            "volumeto": 1.2056310000000001
        },
        {
            "time": 1516822800,
            "close": 0.0003892,
            "high": 0.0003896,
            "low": 0.0003882,
            "open": 0.0003892,
            "volumefrom": 3373.4400000000005,
            "volumeto": 1.311394
        },
        {
            "time": 1516823400,
            "close": 0.000387,
            "high": 0.00039,
            "low": 0.0003854,
            "open": 0.0003892,
            "volumefrom": 13209.62,
            "volumeto": 5.09507
        },
        {
            "time": 1516824000,
            "close": 0.0003816,
            "high": 0.000387,
            "low": 0.0003808,
            "open": 0.000387,
            "volumefrom": 18518.719999999998,
            "volumeto": 7.07648
        },
        {
            "time": 1516824600,
            "close": 0.0003804,
            "high": 0.0003816,
            "low": 0.0003794,
            "open": 0.0003816,
            "volumefrom": 11736.379999999997,
            "volumeto": 4.4556
        },
        {
            "time": 1516825200,
            "close": 0.0003803,
            "high": 0.0003806,
            "low": 0.0003794,
            "open": 0.0003806,
            "volumefrom": 8321.71,
            "volumeto": 3.1641700000000004
        },
        {
            "time": 1516825800,
            "close": 0.0003823,
            "high": 0.0003847,
            "low": 0.0003803,
            "open": 0.0003803,
            "volumefrom": 6755.39,
            "volumeto": 2.57618
        },
        {
            "time": 1516826400,
            "close": 0.0003799,
            "high": 0.0003823,
            "low": 0.0003766,
            "open": 0.0003823,
            "volumefrom": 20566.890000000003,
            "volumeto": 7.7629600000000005
        }
    ],
    "TimeTo": 1516826760,
    "TimeFrom": 1516706400,
    "FirstValueInArray": true,
    "ConversionType": {
        "type": "direct",
        "conversionSymbol": ""
    }
}