{
  "Response": "Success",
  "Type": 100,
  "Aggregated": true,
  "Data": [
    {
      "time": 1516739400,
      "close": 0.5013,
      "high": 0.5015,
      "low": 0.4939,
      "open": 0.4945,
      "volumefrom": 165687.7,
      "volumeto": 82820.82999999999
    },
    {
      "time": 1516740000,
      "close": 0.5012,
      "high": 0.5013,
      "low": 0.4985,
      "open": 0.5013,
      "volumefrom": 71988.70000000001,
      "volumeto": 35715.020000000004
    },
    {
      "time": 1516740600,
      "close": 0.504,
      "high": 0.504,
      "low": 0.501,
      "open": 0.5012,
      "volumefrom": 116508.06999999999,
      "volumeto": 58627.46
    },
    {
      "time": 1516741200,
      "close": 0.5035,
      "high": 0.504,
      "low": 0.4884,
      "open": 0.504,
      "volumefrom": 33060.14,
      "volumeto": 16393.88
    },
    {
      "time": 1516741800,
      "close": 0.4932,
      "high": 0.5035,
      "low": 0.492,
      "open": 0.5035,
      "volumefrom": 74645.52,
      "volumeto": 36751.37
    },
    {
      "time": 1516742400,
      "close": 0.4935,
      "high": 0.4935,
      "low": 0.4921,
      "open": 0.4932,
      "volumefrom": 28357.35,
      "volumeto": 13970.95
    },
    {
      "time": 1516743000,
      "close": 0.496,
      "high": 0.496,
      "low": 0.4935,
      "open": 0.4935,
      "volumefrom": 8322.550000000001,
      "volumeto": 4107.81
    },
    {
      "time": 1516743600,
      "close": 0.4911,
      "high": 0.496,
      "low": 0.4911,
      "open": 0.496,
      "volumefrom": 38255.14000000001,
      "volumeto": 19075.120000000003
    },
    {
      "time": 1516744200,
      "close": 0.4913,
      "high": 0.4913,
      "low": 0.4911,
      "open": 0.4911,
      "volumefrom": 55464.26,
      "volumeto": 27358.99
    },
    {
      "time": 1516744800,
      "close": 0.4955,
      "high": 0.5,
      "low": 0.4913,
      "open": 0.4913,
      "volumefrom": 49802.87,
      "volumeto": 24782.52
    },
    {
      "time": 1516745400,
      "close": 0.5,
      "high": 0.5,
      "low": 0.497,
      "open": 0.497,
      "volumefrom": 34995.689999999995,
      "volumeto": 17483.910000000003
    },
    {
      "time": 1516746000,
      "close": 0.5008,
      "high": 0.5008,
      "low": 0.5,
      "open": 0.5,
      "volumefrom": 51265.41,
      "volumeto": 25773.629999999997
    },
    {
      "time": 1516746600,
      "close": 0.5017,
      "high": 0.5017,
      "low": 0.5008,
      "open": 0.5008,
      "volumefrom": 88676.09999999999,
      "volumeto": 44475.270000000004
    },
    {
      "time": 1516747200,
      "close": 0.5001,
      "high": 0.5017,
      "low": 0.5,
      "open": 0.5017,
      "volumefrom": 15528.649999999998,
      "volumeto": 7769.199999999999
    },
    {
      "time": 1516747800,
      "close": 0.497,
      "high": 0.5001,
      "low": 0.497,
      "open": 0.5001,
      "volumefrom": 21812.909999999996,
      "volumeto": 10885.830000000002
    },
    {
      "time": 1516748400,
      "close": 0.4975,
      "high": 0.4975,
      "low": 0.497,
      "open": 0.497,
      "volumefrom": 236952.54,
      "volumeto": 118738.76000000001
    },
    {
      "time": 1516749000,
      "close": 0.5017,
      "high": 0.5017,
      "low": 0.5007,
      "open": 0.5017,
      "volumefrom": 49268.28,
      "volumeto": 24642.52
    },
    {
      "time": 1516749600,
      "close": 0.4879,
      "high": 0.4906,
      "low": 0.4877,
      "open": 0.4906,
      "volumefrom": 102135.40000000001,
      "volumeto": 49917.11
    },
    {
      "time": 1516750200,
      "close": 0.4878,
      "high": 0.4879,
      "low": 0.4859,
      "open": 0.4879,
      "volumefrom": 40587.659999999996,
      "volumeto": 19771.33
    },
    {
      "time": 1516750800,
      "close": 0.48,
      "high": 0.4878,
      "low": 0.48,
      "open": 0.4878,
      "volumefrom": 333999.99999999994,
      "volumeto": 160854.78
    },
    {
      "time": 1516751400,
      "close": 0.4838,
      "high": 0.4838,
      "low": 0.48,
      "open": 0.48,
      "volumefrom": 59052.149999999994,
      "volumeto": 28563.869999999995
    },
    {
      "time": 1516752000,
      "close": 0.4828,
      "high": 0.4886,
      "low": 0.4828,
      "open": 0.4838,
      "volumefrom": 23296,
      "volumeto": 11341.94
    },
    {
      "time": 1516752600,
      "close": 0.483,
      "high": 0.483,
      "low": 0.4828,
      "open": 0.4828,
      "volumefrom": 47736.770000000004,
      "volumeto": 23042.140000000003
    },
    {
      "time": 1516753200,
      "close": 0.4823,
      "high": 0.4862,
      "low": 0.4823,
      "open": 0.483,
      "volumefrom": 70259.80000000002,
      "volumeto": 34200.95
    },
    {
      "time": 1516753800,
      "close": 0.482,
      "high": 0.4857,
      "low": 0.482,
      "open": 0.4823,
      "volumefrom": 177338.56000000003,
      "volumeto": 85172.84000000001
    },
    {
      "time": 1516754400,
      "close": 0.4709,
      "high": 0.4766,
      "low": 0.47,
      "open": 0.4766,
      "volumefrom": 271480.91000000003,
      "volumeto": 128327.51999999997
    },
    {
      "time": 1516755000,
      "close": 0.472,
      "high": 0.4761,
      "low": 0.47,
      "open": 0.4751,
      "volumefrom": 71156.93000000001,
      "volumeto": 33469.53
    },
    {
      "time": 1516755600,
      "close": 0.477,
      "high": 0.479,
      "low": 0.472,
      "open": 0.472,
      "volumefrom": 117702.21,
      "volumeto": 56262.54
    },
    {
      "time": 1516756200,
      "close": 0.477,
      "high": 0.477,
      "low": 0.477,
      "open": 0.477,
      "volumefrom": 22207.780000000002,
      "volumeto": 10649.75
    },
    {
      "time": 1516756800,
      "close": 0.4876,
      "high": 0.4877,
      "low": 0.483,
      "open": 0.483,
      "volumefrom": 53146.28,
      "volumeto": 25876.98
    },
    {
      "time": 1516757400,
      "close": 0.485,
      "high": 0.4876,
      "low": 0.485,
      "open": 0.4876,
      "volumefrom": 67689.31,
      "volumeto": 32799.3
    },
    {
      "time": 1516758000,
      "close": 0.48,
      "high": 0.485,
      "low": 0.4757,
      "open": 0.485,
      "volumefrom": 44526.84,
      "volumeto": 21287.580000000005
    },
    {
      "time": 1516758600,
      "close": 0.4735,
      "high": 0.48,
      "low": 0.4725,
      "open": 0.48,
      "volumefrom": 2676.29,
      "volumeto": 1270.2700000000002
    },
    {
      "time": 1516759200,
      "close": 0.479,
      "high": 0.479,
      "low": 0.4723,
      "open": 0.4735,
      "volumefrom": 88540.51999999997,
      "volumeto": 42279.77
    },
    {
      "time": 1516759800,
      "close": 0.4808,
      "high": 0.4809,
      "low": 0.479,
      "open": 0.479,
      "volumefrom": 4119.360000000001,
      "volumeto": 1975.4100000000003
    },
    {
      "time": 1516760400,
      "close": 0.4877,
      "high": 0.4877,
      "low": 0.4804,
      "open": 0.4808,
      "volumefrom": 27731.910000000003,
      "volumeto": 13435.23
    },
    {
      "time": 1516761000,
      "close": 0.4857,
      "high": 0.4872,
      "low": 0.4833,
      "open": 0.4872,
      "volumefrom": 25733.429999999997,
      "volumeto": 12415.94
    },
    {
      "time": 1516761600,
      "close": 0.4857,
      "high": 0.4857,
      "low": 0.4857,
      "open": 0.4857,
      "volumefrom": 611170.5299999999,
      "volumeto": 299159.51
    },
    {
      "time": 1516762200,
      "close": 0.4891,
      "high": 0.4891,
      "low": 0.4857,
      "open": 0.4857,
      "volumefrom": 62049.64,
      "volumeto": 30389.46
    },
    {
      "time": 1516762800,
      "close": 0.4891,
      "high": 0.4891,
      "low": 0.4891,
      "open": 0.4891,
      "volumefrom": 96215.63999999998,
      "volumeto": 47146.16
    },
    {
      "time": 1516763400,
      "close": 0.495,
      "high": 0.495,
      "low": 0.49,
      "open": 0.49,
      "volumefrom": 173652.49999999997,
      "volumeto": 86671.19
    },
    {
      "time": 1516764000,
      "close": 0.5071,
      "high": 0.5071,
      "low": 0.495,
      "open": 0.495,
      "volumefrom": 154279.23,
      "volumeto": 78076.53
    },
    {
      "time": 1516764600,
      "close": 0.5102,
      "high": 0.512,
      "low": 0.5051,
      "open": 0.5094,
      "volumefrom": 81936.37999999999,
      "volumeto": 41729.409999999996
    },
    {
      "time": 1516765200,
      "close": 0.5068,
      "high": 0.5102,
      "low": 0.5068,
      "open": 0.5102,
      "volumefrom": 28635.459999999995,
      "volumeto": 14545.220000000001
    },
    {
      "time": 1516765800,
      "close": 0.515,
      "high": 0.515,
      "low": 0.5053,
      "open": 0.5068,
      "volumefrom": 158656.87,
      "volumeto": 80723.37999999999
    },
    {
      "time": 1516766400,
      "close": 0.5121,
      "high": 0.5137,
      "low": 0.5121,
      "open": 0.5137,
      "volumefrom": 308523.72000000003,
      "volumeto": 156899.61
    },
    {
      "time": 1516767000,
      "close": 0.5,
      "high": 0.5065,
      "low": 0.4936,
      "open": 0.5065,
      "volumefrom": 118276.68,
      "volumeto": 58734.27
    },
    {
      "time": 1516767600,
      "close": 0.49,
      "high": 0.5,
      "low": 0.4882,
      "open": 0.5,
      "volumefrom": 61118.84,
      "volumeto": 29963.4
    },
    {
      "time": 1516768200,
      "close": 0.502,
      "high": 0.5031,
      "low": 0.49,
      "open": 0.49,
      "volumefrom": 90887.64,
      "volumeto": 45439.380000000005
    },
    {
      "time": 1516768800,
      "close": 0.502,
      "high": 0.502,
      "low": 0.499,
      "open": 0.502,
      "volumefrom": 32145.33,
      "volumeto": 15948.369999999999
    },
    {
      "time": 1516769400,
      "close": 0.503,
      "high": 0.503,
      "low": 0.495,
      "open": 0.502,
      "volumefrom": 128070.87999999999,
      "volumeto": 63130.97
    },
    {
      "time": 1516770000,
      "close": 0.5035,
      "high": 0.5035,
      "low": 0.5024,
      "open": 0.503,
      "volumefrom": 74555.52,
      "volumeto": 37567.19
    },
    {
      "time": 1516770600,
      "close": 0.501,
      "high": 0.5035,
      "low": 0.5,
      "open": 0.5035,
      "volumefrom": 51383.590000000004,
      "volumeto": 25777.7
    },
    {
      "time": 1516771200,
      "close": 0.4969,
      "high": 0.501,
      "low": 0.4969,
      "open": 0.501,
      "volumefrom": 26625.510000000006,
      "volumeto": 13260.49
    },
    {
      "time": 1516771800,
      "close": 0.4969,
      "high": 0.4969,
      "low": 0.4969,
      "open": 0.4969,
      "volumefrom": 12989.46,
      "volumeto": 6522.139999999999
    },
    {
      "time": 1516772400,
      "close": 0.5024,
      "high": 0.5029,
      "low": 0.4969,
      "open": 0.4969,
      "volumefrom": 7363.09,
      "volumeto": 3694.37
    },
    {
      "time": 1516773000,
      "close": 0.503,
      "high": 0.5065,
      "low": 0.503,
      "open": 0.5035,
      "volumefrom": 31870.63,
      "volumeto": 16122.21
    },
    {
      "time": 1516773600,
      "close": 0.5035,
      "high": 0.5035,
      "low": 0.502,
      "open": 0.503,
      "volumefrom": 15231.590000000002,
      "volumeto": 7650.429999999999
    },
    {
      "time": 1516774200,
      "close": 0.5105,
      "high": 0.5105,
      "low": 0.5035,
      "open": 0.5035,
      "volumefrom": 75150.71,
      "volumeto": 38314.32
    },
    {
      "time": 1516774800,
      "close": 0.515,
      "high": 0.515,
      "low": 0.5111,
      "open": 0.5126,
      "volumefrom": 222698.28,
      "volumeto": 114256.61
    },
    {
      "time": 1516775400,
      "close": 0.518,
      "high": 0.518,
      "low": 0.5083,
      "open": 0.509,
      "volumefrom": 404016.91000000003,
      "volumeto": 209670.91
    },
    {
      "time": 1516776000,
      "close": 0.535,
      "high": 0.5357,
      "low": 0.5224,
      "open": 0.523,
      "volumefrom": 631877.8300000001,
      "volumeto": 334598.2
    },
    {
      "time": 1516776600,
      "close": 0.5251,
      "high": 0.535,
      "low": 0.5232,
      "open": 0.535,
      "volumefrom": 161927.08000000002,
      "volumeto": 84703.29000000001
    },
    {
      "time": 1516777200,
      "close": 0.5361,
      "high": 0.5361,
      "low": 0.52,
      "open": 0.522,
      "volumefrom": 204020.65,
      "volumeto": 108292.08
    },
    {
      "time": 1516777800,
      "close": 0.54,
      "high": 0.5434,
      "low": 0.5361,
      "open": 0.5361,
      "volumefrom": 415352.56,
      "volumeto": 224037.40999999997
    },
    {
      "time": 1516778400,
      "close": 0.534,
      "high": 0.5389,
      "low": 0.5317,
      "open": 0.5323,
      "volumefrom": 329952.07,
      "volumeto": 175146.33000000002
    },
    {
      "time": 1516779000,
      "close": 0.5325,
      "high": 0.534,
      "low": 0.5324,
      "open": 0.534,
      "volumefrom": 102006.08,
      "volumeto": 54090.01
    },
    {
      "time": 1516779600,
      "close": 0.526,
      "high": 0.5325,
      "low": 0.5227,
      "open": 0.5325,
      "volumefrom": 210741.77,
      "volumeto": 110661.52999999998
    },
    {
      "time": 1516780200,
      "close": 0.5369,
      "high": 0.5369,
      "low": 0.526,
      "open": 0.526,
      "volumefrom": 98293.48000000001,
      "volumeto": 52464.72
    },
    {
      "time": 1516780800,
      "close": 0.5342,
      "high": 0.5375,
      "low": 0.5342,
      "open": 0.5369,
      "volumefrom": 129322.09999999999,
      "volumeto": 69286.39
    },
    {
      "time": 1516781400,
      "close": 0.5402,
      "high": 0.5402,
      "low": 0.5337,
      "open": 0.5342,
      "volumefrom": 114172.67999999998,
      "volumeto": 61363.920000000006
    },
    {
      "time": 1516782000,
      "close": 0.542,
      "high": 0.5431,
      "low": 0.5402,
      "open": 0.5402,
      "volumefrom": 182176.30999999997,
      "volumeto": 98840.18
    },
    {
      "time": 1516782600,
      "close": 0.5288,
      "high": 0.542,
      "low": 0.526,
      "open": 0.542,
      "volumefrom": 508059.1500000001,
      "volumeto": 270268.13
    },
    {
      "time": 1516783200,
      "close": 0.5378,
      "high": 0.5378,
      "low": 0.5288,
      "open": 0.5288,
      "volumefrom": 231634.59000000003,
      "volumeto": 123020.99000000002
    },
    {
      "time": 1516783800,
      "close": 0.5379,
      "high": 0.5379,
      "low": 0.5378,
      "open": 0.5378,
      "volumefrom": 81375.44,
      "volumeto": 43524.420000000006
    },
    {
      "time": 1516784400,
      "close": 0.5241,
      "high": 0.5346,
      "low": 0.5241,
      "open": 0.5346,
      "volumefrom": 72166.25,
      "volumeto": 38117.67
    },
    {
      "time": 1516785000,
      "close": 0.525,
      "high": 0.525,
      "low": 0.5241,
      "open": 0.5241,
      "volumefrom": 19760.140000339998,
      "volumeto": 10377.03000017
    },
    {
      "time": 1516785600,
      "close": 0.5341,
      "high": 0.5341,
      "low": 0.525,
      "open": 0.525,
      "volumefrom": 264792.31999999995,
      "volumeto": 141538.22
    },
    {
      "time": 1516786200,
      "close": 0.534,
      "high": 0.5341,
      "low": 0.534,
      "open": 0.5341,
      "volumefrom": 45162.31,
      "volumeto": 24170.190000000002
    },
    {
      "time": 1516786800,
      "close": 0.5321,
      "high": 0.537,
      "low": 0.5321,
      "open": 0.534,
      "volumefrom": 47392.30999999998,
      "volumeto": 25383.009999999995
    },
    {
      "time": 1516787400,
      "close": 0.5367,
      "high": 0.5367,
      "low": 0.53,
      "open": 0.5307,
      "volumefrom": 169397.39999999997,
      "volumeto": 90646.51999999999
    },
    {
      "time": 1516788000,
      "close": 0.5471,
      "high": 0.5471,
      "low": 0.5402,
      "open": 0.5402,
      "volumefrom": 196134.07000000004,
      "volumeto": 106636.79000000001
    },
    {
      "time": 1516788600,
      "close": 0.543,
      "high": 0.547,
      "low": 0.5401,
      "open": 0.544,
      "volumefrom": 33453.44,
      "volumeto": 18129.920000000006
    },
    {
      "time": 1516789200,
      "close": 0.5391,
      "high": 0.543,
      "low": 0.5391,
      "open": 0.54,
      "volumefrom": 75537.70999999999,
      "volumeto": 40855.63
    },
    {
      "time": 1516789800,
      "close": 0.532,
      "high": 0.5391,
      "low": 0.5319,
      "open": 0.5391,
      "volumefrom": 57232.259999999995,
      "volumeto": 30503.06
    },
    {
      "time": 1516790400,
      "close": 0.54,
      "high": 0.54,
      "low": 0.535,
      "open": 0.535,
      "volumefrom": 74988.99,
      "volumeto": 40322.77999999999
    },
    {
      "time": 1516791000,
      "close": 0.54,
      "high": 0.54,
      "low": 0.54,
      "open": 0.54,
      "volumefrom": 137344.68000000002,
      "volumeto": 74149.37000000001
    },
    {
      "time": 1516791600,
      "close": 0.5399,
      "high": 0.54,
      "low": 0.5351,
      "open": 0.54,
      "volumefrom": 91417.53,
      "volumeto": 49305.119999999995
    },
    {
      "time": 1516792200,
      "close": 0.5401,
      "high": 0.5401,
      "low": 0.5399,
      "open": 0.5399,
      "volumefrom": 85076.55,
      "volumeto": 45941.77
    },
    {
      "time": 1516792800,
      "close": 0.5369,
      "high": 0.541,
      "low": 0.5369,
      "open": 0.5401,
      "volumefrom": 102132.93,
      "volumeto": 55023.630000000005
    },
    {
      "time": 1516793400,
      "close": 0.5489,
      "high": 0.5489,
      "low": 0.5369,
      "open": 0.5369,
      "volumefrom": 395066.92,
      "volumeto": 216788.50999999998
    },
    {
      "time": 1516794000,
      "close": 0.5536,
      "high": 0.56,
      "low": 0.55,
      "open": 0.55,
      "volumefrom": 1361470.6199999999,
      "volumeto": 756687.07
    },
    {
      "time": 1516794600,
      "close": 0.55,
      "high": 0.55,
      "low": 0.5438,
      "open": 0.5438,
      "volumefrom": 323437.30999999994,
      "volumeto": 177309.13
    },
    {
      "time": 1516795200,
      "close": 0.5719,
      "high": 0.573,
      "low": 0.55,
      "open": 0.55,
      "volumefrom": 1078758.39,
      "volumeto": 616121.01
    },
    {
      "time": 1516795800,
      "close": 0.58,
      "high": 0.5815,
      "low": 0.5727,
      "open": 0.575,
      "volumefrom": 719619.5900000001,
      "volumeto": 417507.44000000006
    },
    {
      "time": 1516796400,
      "close": 0.58,
      "high": 0.583,
      "low": 0.58,
      "open": 0.58,
      "volumefrom": 168641.61000000002,
      "volumeto": 98044.44
    },
    {
      "time": 1516797000,
      "close": 0.5855,
      "high": 0.5855,
      "low": 0.58,
      "open": 0.58,
      "volumefrom": 213061.02000000002,
      "volumeto": 124105.67000000001
    },
    {
      "time": 1516797600,
      "close": 0.581,
      "high": 0.5895,
      "low": 0.5802,
      "open": 0.5895,
      "volumefrom": 344670.24000000005,
      "volumeto": 200367.50999999998
    },
    {
      "time": 1516798200,
      "close": 0.5831,
      "high": 0.587,
      "low": 0.581,
      "open": 0.581,
      "volumefrom": 388244,
      "volumeto": 226792.57
    },
    {
      "time": 1516798800,
      "close": 0.5711,
      "high": 0.5781,
      "low": 0.5631,
      "open": 0.5781,
      "volumefrom": 633633.3999999999,
      "volumeto": 360495.63999999996
    },
    {
      "time": 1516799400,
      "close": 0.573,
      "high": 0.573,
      "low": 0.5633,
      "open": 0.5711,
      "volumefrom": 508539.64999999997,
      "volumeto": 288271.16
    },
    {
      "time": 1516800000,
      "close": 0.5709,
      "high": 0.5732,
      "low": 0.5709,
      "open": 0.573,
      "volumefrom": 109857.92000000001,
      "volumeto": 63253.399999999994
    },
    {
      "time": 1516800600,
      "close": 0.5668,
      "high": 0.5748,
      "low": 0.5668,
      "open": 0.5709,
      "volumefrom": 151951.81,
      "volumeto": 86568.88
    },
    {
      "time": 1516801200,
      "close": 0.569,
      "high": 0.574,
      "low": 0.56,
      "open": 0.5668,
      "volumefrom": 482814.4800000001,
      "volumeto": 274397.11000000004
    },
    {
      "time": 1516801800,
      "close": 0.569,
      "high": 0.569,
      "low": 0.5652,
      "open": 0.569,
      "volumefrom": 555700.87,
      "volumeto": 316664.52999999997
    },
    {
      "time": 1516802400,
      "close": 0.57,
      "high": 0.589,
      "low": 0.569,
      "open": 0.569,
      "volumefrom": 371658.55,
      "volumeto": 215749.41999999998
    },
    {
      "time": 1516803000,
      "close": 0.5571,
      "high": 0.57,
      "low": 0.555,
      "open": 0.57,
      "volumefrom": 673014.98,
      "volumeto": 378583.31
    },
    {
      "time": 1516803600,
      "close": 0.56,
      "high": 0.564,
      "low": 0.5571,
      "open": 0.5571,
      "volumefrom": 154799.83000000002,
      "volumeto": 86731.83
    },
    {
      "time": 1516804200,
      "close": 0.556,
      "high": 0.56,
      "low": 0.556,
      "open": 0.56,
      "volumefrom": 206614.49000000002,
      "volumeto": 114396.01000000001
    },
    {
      "time": 1516804800,
      "close": 0.55,
      "high": 0.556,
      "low": 0.55,
      "open": 0.556,
      "volumefrom": 490912.3300000001,
      "volumeto": 268024.38999999996
    },
    {
      "time": 1516805400,
      "close": 0.5492,
      "high": 0.5498,
      "low": 0.54,
      "open": 0.54,
      "volumefrom": 351176.48000000004,
      "volumeto": 190775.53999999998
    },
    {
      "time": 1516806000,
      "close": 0.54,
      "high": 0.55,
      "low": 0.54,
      "open": 0.55,
      "volumefrom": 199869.01,
      "volumeto": 108650.34
    },
    {
      "time": 1516806600,
      "close": 0.5348,
      "high": 0.542,
      "low": 0.531,
      "open": 0.54,
      "volumefrom": 333218.76999999996,
      "volumeto": 177639.13000000003
    },
    {
      "time": 1516807200,
      "close": 0.5468,
      "high": 0.5468,
      "low": 0.5348,
      "open": 0.5348,
      "volumefrom": 321727.54,
      "volumeto": 174569.62999999998
    },
    {
      "time": 1516807800,
      "close": 0.5399,
      "high": 0.5468,
      "low": 0.5368,
      "open": 0.5468,
      "volumefrom": 240706.81,
      "volumeto": 130839.37
    },
    {
      "time": 1516808400,
      "close": 0.54,
      "high": 0.54,
      "low": 0.535,
      "open": 0.5399,
      "volumefrom": 92334.05,
      "volumeto": 49648.93
    },
    {
      "time": 1516809000,
      "close": 0.534,
      "high": 0.5433,
      "low": 0.5329,
      "open": 0.54,
      "volumefrom": 190040.11000000002,
      "volumeto": 101414.11
    },
    {
      "time": 1516809600,
      "close": 0.5337,
      "high": 0.5337,
      "low": 0.5277,
      "open": 0.5295,
      "volumefrom": 256844.62999999998,
      "volumeto": 136091.01
    },
    {
      "time": 1516810200,
      "close": 0.5337,
      "high": 0.5337,
      "low": 0.5337,
      "open": 0.5337,
      "volumefrom": 138715.96,
      "volumeto": 73896.66
    },
    {
      "time": 1516810800,
      "close": 0.535,
      "high": 0.5351,
      "low": 0.533,
      "open": 0.533,
      "volumefrom": 83611.24,
      "volumeto": 44786.38
    },
    {
      "time": 1516811400,
      "close": 0.547,
      "high": 0.5513,
      "low": 0.535,
      "open": 0.535,
      "volumefrom": 63163.2,
      "volumeto": 34096.31
    },
    {
      "time": 1516812000,
      "close": 0.55,
      "high": 0.5532,
      "low": 0.5457,
      "open": 0.547,
      "volumefrom": 430702.22,
      "volumeto": 238331.35
    },
    {
      "time": 1516812600,
      "close": 0.5464,
      "high": 0.5464,
      "low": 0.5422,
      "open": 0.545,
      "volumefrom": 81567.93,
      "volumeto": 44567.76
    },
    {
      "time": 1516813200,
      "close": 0.5453,
      "high": 0.5512,
      "low": 0.5453,
      "open": 0.5464,
      "volumefrom": 89696.69,
      "volumeto": 49157.59
    },
    {
      "time": 1516813800,
      "close": 0.54,
      "high": 0.5453,
      "low": 0.54,
      "open": 0.5453,
      "volumefrom": 156813.09,
      "volumeto": 84592.08000000003
    },
    {
      "time": 1516814400,
      "close": 0.5497,
      "high": 0.5497,
      "low": 0.537,
      "open": 0.54,
      "volumefrom": 89986.06999999999,
      "volumeto": 48943.990000000005
    },
    {
      "time": 1516815000,
      "close": 0.55,
      "high": 0.55,
      "low": 0.547,
      "open": 0.5497,
      "volumefrom": 81203.76,
      "volumeto": 44609.08
    },
    {
      "time": 1516815600,
      "close": 0.55,
      "high": 0.55,
      "low": 0.55,
      "open": 0.55,
      "volumefrom": 161671.18,
      "volumeto": 88768.02999999998
    },
    {
      "time": 1516816200,
      "close": 0.5566,
      "high": 0.5566,
      "low": 0.55,
      "open": 0.55,
      "volumefrom": 252384.43000000002,
      "volumeto": 139712.64
    },
    {
      "time": 1516816800,
      "close": 0.565,
      "high": 0.565,
      "low": 0.5566,
      "open": 0.5566,
      "volumefrom": 401529.69999999995,
      "volumeto": 225812.3
    },
    {
      "time": 1516817400,
      "close": 0.57,
      "high": 0.57,
      "low": 0.565,
      "open": 0.565,
      "volumefrom": 235985.69,
      "volumeto": 134397.37000000002
    },
    {
      "time": 1516818000,
      "close": 0.5794,
      "high": 0.5794,
      "low": 0.5688,
      "open": 0.5713,
      "volumefrom": 419361.81999999995,
      "volumeto": 240449.47000000003
    },
    {
      "time": 1516818600,
      "close": 0.558,
      "high": 0.5794,
      "low": 0.558,
      "open": 0.5794,
      "volumefrom": 427680.81999999995,
      "volumeto": 241458.69999999998
    },
    {
      "time": 1516819200,
      "close": 0.5602,
      "high": 0.561,
      "low": 0.558,
      "open": 0.558,
      "volumefrom": 124724.34999999999,
      "volumeto": 69850.59999999999
    },
    {
      "time": 1516819800,
      "close": 0.5643,
      "high": 0.5643,
      "low": 0.56,
      "open": 0.5602,
      "volumefrom": 70224.92,
      "volumeto": 39519.21
    },
    {
      "time": 1516820400,
      "close": 0.559,
      "high": 0.5643,
      "low": 0.5568,
      "open": 0.5643,
      "volumefrom": 62803.28999999999,
      "volumeto": 35025.509999999995
    },
    {
      "time": 1516821000,
      "close": 0.568,
      "high": 0.568,
      "low": 0.559,
      "open": 0.559,
      "volumefrom": 107292.24,
      "volumeto": 60709.689999999995
    },
    {
      "time": 1516821600,
      "close": 0.561,
      "high": 0.5735,
      "low": 0.5605,
      "open": 0.568,
      "volumefrom": 770805.51,
      "volumeto": 431738.4199999999
    },
    {
      "time": 1516822200,
      "close": 0.5665,
      "high": 0.5699,
      "low": 0.561,
      "open": 0.561,
      "volumefrom": 52201.19,
      "volumeto": 29702.6
    },
    {
      "time": 1516822800,
      "close": 0.5675,
      "high": 0.57,
      "low": 0.5665,
      "open": 0.5665,
      "volumefrom": 85796.93000000001,
      "volumeto": 48774.42
    },
    {
      "time": 1516823400,
      "close": 0.57,
      "high": 0.57,
      "low": 0.5675,
      "open": 0.5675,
      "volumefrom": 157345.1,
      "volumeto": 89111.23000000001
    },
    {
      "time": 1516824000,
      "close": 0.5651,
      "high": 0.567,
      "low": 0.5617,
      "open": 0.567,
      "volumefrom": 138257.61,
      "volumeto": 77205.53000000001
    },
    {
      "time": 1516824600,
      "close": 0.5626,
      "high": 0.5651,
      "low": 0.5626,
      "open": 0.5651,
      "volumefrom": 24270.089999999997,
      "volumeto": 13707.53
    },
    {
      "time": 1516825200,
      "close": 0.561,
      "high": 0.5626,
      "low": 0.561,
      "open": 0.5626,
      "volumefrom": 49992.159999999996,
      "volumeto": 28063.61
    },
    {
      "time": 1516825800,
      "close": 0.5674,
      "high": 0.5674,
      "low": 0.561,
      "open": 0.561,
      "volumefrom": 16782.84,
      "volumeto": 9502.36
    }
  ],
  "TimeTo": 1516826280,
  "TimeFrom": 1516739400,
  "FirstValueInArray": true,
  "ConversionType": {
    "type": "direct",
    "conversionSymbol": ""
  }
}